{"failedCount":0,"prefixedPath":"classpath:reqresusers\/feature\/reqresusers_get.feature","packageQualifiedName":"reqresusers.feature.reqresusers_get","loopIndex":-1,"relativePath":"reqresusers\/feature\/reqresusers_get.feature","scenarioResults":[{"sectionIndex":0,"stepResults":[{"result":{"nanos":597000,"startTime":1720677321505,"endTime":1720677321506,"millis":0.597,"status":"passed"},"step":{"line":5,"prefix":"Given","index":0,"text":"url baseURL"},"stepLog":"11:25:21.503 karate.env system property was: null \n"},{"result":{"nanos":889700,"startTime":1720677321506,"endTime":1720677321507,"millis":0.8897,"status":"passed"},"step":{"line":6,"prefix":"And","index":1,"text":"path 'users'"}},{"result":{"nanos":3057300,"startTime":1720677321507,"endTime":1720677321510,"millis":3.0573,"status":"passed"},"step":{"line":7,"prefix":"And","index":2,"text":"param page = 2"}},{"result":{"nanos":71036200,"startTime":1720677321509,"endTime":1720677321580,"millis":71.0362,"status":"passed"},"step":{"line":8,"prefix":"When","index":3,"text":"method GET"},"stepLog":"11:25:21.512 request:\n1 > GET https:\/\/reqres.in\/api\/users?page=2\n1 > Host: reqres.in\n1 > Connection: Keep-Alive\n1 > User-Agent: Apache-HttpClient\/4.5.14 (Java\/17.0.11)\n1 > Accept-Encoding: gzip,deflate\n\n\n11:25:21.577 response time in milliseconds: 62\n1 < 200\n1 < Date: Thu, 11 Jul 2024 05:55:21 GMT\n1 < Content-Type: application\/json; charset=utf-8\n1 < Transfer-Encoding: chunked\n1 < Connection: keep-alive\n1 < Report-To: {\"group\":\"heroku-nel\",\"max_age\":3600,\"endpoints\":[{\"url\":\"https:\/\/nel.heroku.com\/reports?ts=1720642013&sid=c4c9725f-1ab0-44d8-820f-430df2718e11&s=tqGqQmg6QFyP%2F%2BloqITkgoaqw3kwe%2BhgIfPwA78MpZw%3D\"}]}\n1 < Reporting-Endpoints: heroku-nel=https:\/\/nel.heroku.com\/reports?ts=1720642013&sid=c4c9725f-1ab0-44d8-820f-430df2718e11&s=tqGqQmg6QFyP%2F%2BloqITkgoaqw3kwe%2BhgIfPwA78MpZw%3D\n1 < Nel: {\"report_to\":\"heroku-nel\",\"max_age\":3600,\"success_fraction\":0.005,\"failure_fraction\":0.05,\"response_headers\":[\"Via\"]}\n1 < X-Powered-By: Express\n1 < Access-Control-Allow-Origin: *\n1 < Etag: W\/\"406-ut0vzoCuidvyMf8arZpMpJ6ZRDw\"\n1 < Via: 1.1 vegur\n1 < Cache-Control: max-age=14400\n1 < CF-Cache-Status: HIT\n1 < Age: 6145\n1 < Vary: Accept-Encoding\n1 < Server: cloudflare\n1 < CF-RAY: 8a168b4bda874543-BOM\n{\"page\":2,\"per_page\":6,\"total\":12,\"total_pages\":2,\"data\":[{\"id\":7,\"email\":\"michael.lawson@reqres.in\",\"first_name\":\"Michael\",\"last_name\":\"Lawson\",\"avatar\":\"https:\/\/reqres.in\/img\/faces\/7-image.jpg\"},{\"id\":8,\"email\":\"lindsay.ferguson@reqres.in\",\"first_name\":\"Lindsay\",\"last_name\":\"Ferguson\",\"avatar\":\"https:\/\/reqres.in\/img\/faces\/8-image.jpg\"},{\"id\":9,\"email\":\"tobias.funke@reqres.in\",\"first_name\":\"Tobias\",\"last_name\":\"Funke\",\"avatar\":\"https:\/\/reqres.in\/img\/faces\/9-image.jpg\"},{\"id\":10,\"email\":\"byron.fields@reqres.in\",\"first_name\":\"Byron\",\"last_name\":\"Fields\",\"avatar\":\"https:\/\/reqres.in\/img\/faces\/10-image.jpg\"},{\"id\":11,\"email\":\"george.edwards@reqres.in\",\"first_name\":\"George\",\"last_name\":\"Edwards\",\"avatar\":\"https:\/\/reqres.in\/img\/faces\/11-image.jpg\"},{\"id\":12,\"email\":\"rachel.howell@reqres.in\",\"first_name\":\"Rachel\",\"last_name\":\"Howell\",\"avatar\":\"https:\/\/reqres.in\/img\/faces\/12-image.jpg\"}],\"support\":{\"url\":\"https:\/\/reqres.in\/#support-heading\",\"text\":\"To keep ReqRes free, contributions towards server costs are appreciated!\"}}\n\n"},{"result":{"nanos":9400,"startTime":1720677321580,"endTime":1720677321580,"millis":0.0094,"status":"passed"},"step":{"line":9,"prefix":"Then","index":4,"text":"status 200"}}],"line":4,"description":"","durationMillis":75.5896,"failed":false,"tags":["execute"],"executorName":"main","name":"Get list users","startTime":1720677321500,"refId":"[1:4]","endTime":1720677321580,"exampleIndex":-1},{"sectionIndex":1,"stepResults":[{"result":{"nanos":212400,"startTime":1720677321589,"endTime":1720677321589,"millis":0.2124,"status":"passed"},"step":{"line":13,"prefix":"Given","index":0,"text":"url baseURL"},"stepLog":"11:25:21.588 karate.env system property was: null \n"},{"result":{"nanos":1083500,"startTime":1720677321590,"endTime":1720677321591,"millis":1.0835,"status":"passed"},"step":{"line":14,"prefix":"And","index":1,"text":"path 'users\/2'"}},{"result":{"nanos":143972700,"startTime":1720677321591,"endTime":1720677321735,"millis":143.9727,"status":"passed"},"step":{"line":15,"prefix":"When","index":2,"text":"method GET"},"stepLog":"11:25:21.592 request:\n1 > GET https:\/\/reqres.in\/api\/users\/2\n1 > Host: reqres.in\n1 > Connection: Keep-Alive\n1 > User-Agent: Apache-HttpClient\/4.5.14 (Java\/17.0.11)\n1 > Accept-Encoding: gzip,deflate\n\n\n11:25:21.734 response time in milliseconds: 141\n1 < 200\n1 < Date: Thu, 11 Jul 2024 05:55:21 GMT\n1 < Content-Type: application\/json; charset=utf-8\n1 < Transfer-Encoding: chunked\n1 < Connection: keep-alive\n1 < Report-To: {\"group\":\"heroku-nel\",\"max_age\":3600,\"endpoints\":[{\"url\":\"https:\/\/nel.heroku.com\/reports?ts=1720635100&sid=c4c9725f-1ab0-44d8-820f-430df2718e11&s=wd7HjcPoYTfhgg%2FSIfHrApOD67xA%2FxqT08ZblMmcbv0%3D\"}]}\n1 < Reporting-Endpoints: heroku-nel=https:\/\/nel.heroku.com\/reports?ts=1720635100&sid=c4c9725f-1ab0-44d8-820f-430df2718e11&s=wd7HjcPoYTfhgg%2FSIfHrApOD67xA%2FxqT08ZblMmcbv0%3D\n1 < Nel: {\"report_to\":\"heroku-nel\",\"max_age\":3600,\"success_fraction\":0.005,\"failure_fraction\":0.05,\"response_headers\":[\"Via\"]}\n1 < X-Powered-By: Express\n1 < Access-Control-Allow-Origin: *\n1 < Etag: W\/\"118-pbdwwFo9SKNhD3Lx5iHJyngpq00\"\n1 < Via: 1.1 vegur\n1 < Cache-Control: max-age=14400\n1 < CF-Cache-Status: HIT\n1 < Age: 6140\n1 < Vary: Accept-Encoding\n1 < Server: cloudflare\n1 < CF-RAY: 8a168b4cde9647b1-BOM\n{\"data\":{\"id\":2,\"email\":\"janet.weaver@reqres.in\",\"first_name\":\"Janet\",\"last_name\":\"Weaver\",\"avatar\":\"https:\/\/reqres.in\/img\/faces\/2-image.jpg\"},\"support\":{\"url\":\"https:\/\/reqres.in\/#support-heading\",\"text\":\"To keep ReqRes free, contributions towards server costs are appreciated!\"}}\n\n"},{"result":{"nanos":12200,"startTime":1720677321735,"endTime":1720677321735,"millis":0.0122,"status":"passed"},"step":{"line":16,"prefix":"Then","index":3,"text":"status 200"}}],"line":12,"description":"","durationMillis":145.2808,"failed":false,"tags":["execute"],"executorName":"main","name":"Get single user details","startTime":1720677321587,"refId":"[2:12]","endTime":1720677321735,"exampleIndex":-1},{"sectionIndex":2,"stepResults":[{"result":{"nanos":284400,"startTime":1720677321746,"endTime":1720677321746,"millis":0.2844,"status":"passed"},"step":{"line":20,"prefix":"Given","index":0,"text":"url baseURL"},"stepLog":"11:25:21.746 karate.env system property was: null \n"},{"result":{"nanos":526400,"startTime":1720677321747,"endTime":1720677321748,"millis":0.5264,"status":"passed"},"step":{"line":21,"prefix":"And","index":1,"text":"path 'users\/23'"}},{"result":{"nanos":822222000,"startTime":1720677321747,"endTime":1720677322569,"millis":822.222,"status":"passed"},"step":{"line":22,"prefix":"When","index":2,"text":"method GET"},"stepLog":"11:25:21.749 request:\n1 > GET https:\/\/reqres.in\/api\/users\/23\n1 > Host: reqres.in\n1 > Connection: Keep-Alive\n1 > User-Agent: Apache-HttpClient\/4.5.14 (Java\/17.0.11)\n1 > Accept-Encoding: gzip,deflate\n\n\n11:25:22.568 response time in milliseconds: 817\n1 < 404\n1 < Date: Thu, 11 Jul 2024 05:55:22 GMT\n1 < Content-Type: application\/json; charset=utf-8\n1 < Content-Length: 2\n1 < Connection: keep-alive\n1 < Report-To: {\"group\":\"heroku-nel\",\"max_age\":3600,\"endpoints\":[{\"url\":\"https:\/\/nel.heroku.com\/reports?ts=1720677322&sid=c4c9725f-1ab0-44d8-820f-430df2718e11&s=Q4WfbEC39cq%2FE%2FEq9P7sUpWWqyLrIzG7EM7WDKfDm3k%3D\"}]}\n1 < Reporting-Endpoints: heroku-nel=https:\/\/nel.heroku.com\/reports?ts=1720677322&sid=c4c9725f-1ab0-44d8-820f-430df2718e11&s=Q4WfbEC39cq%2FE%2FEq9P7sUpWWqyLrIzG7EM7WDKfDm3k%3D\n1 < Nel: {\"report_to\":\"heroku-nel\",\"max_age\":3600,\"success_fraction\":0.005,\"failure_fraction\":0.05,\"response_headers\":[\"Via\"]}\n1 < X-Powered-By: Express\n1 < Access-Control-Allow-Origin: *\n1 < Etag: W\/\"2-vyGp6PvFo4RvsFtPoIWeCReyIC8\"\n1 < Via: 1.1 vegur\n1 < Cache-Control: max-age=14400\n1 < CF-Cache-Status: EXPIRED\n1 < Vary: Accept-Encoding\n1 < Server: cloudflare\n1 < CF-RAY: 8a168b4daf50f411-BOM\n{}\n\n"},{"result":{"nanos":8000,"startTime":1720677322569,"endTime":1720677322569,"millis":0.008,"status":"passed"},"step":{"line":23,"prefix":"Then","index":3,"text":"status 404"}}],"line":19,"description":"","durationMillis":823.0408,"failed":false,"tags":["execute"],"executorName":"main","name":"Get single user not found","startTime":1720677321744,"refId":"[3:19]","endTime":1720677322569,"exampleIndex":-1},{"sectionIndex":3,"stepResults":[{"result":{"nanos":129800,"startTime":1720677322576,"endTime":1720677322576,"millis":0.1298,"status":"passed"},"step":{"line":27,"prefix":"Given","index":0,"text":"url baseURL"},"stepLog":"11:25:22.576 karate.env system property was: null \n"},{"result":{"nanos":436400,"startTime":1720677322576,"endTime":1720677322576,"millis":0.4364,"status":"passed"},"step":{"line":28,"prefix":"And","index":1,"text":"path 'unknown'"}},{"result":{"nanos":124332300,"startTime":1720677322577,"endTime":1720677322701,"millis":124.3323,"status":"passed"},"step":{"line":29,"prefix":"When","index":2,"text":"method GET"},"stepLog":"11:25:22.579 request:\n1 > GET https:\/\/reqres.in\/api\/unknown\n1 > Host: reqres.in\n1 > Connection: Keep-Alive\n1 > User-Agent: Apache-HttpClient\/4.5.14 (Java\/17.0.11)\n1 > Accept-Encoding: gzip,deflate\n\n\n11:25:22.701 response time in milliseconds: 121\n1 < 200\n1 < Date: Thu, 11 Jul 2024 05:55:22 GMT\n1 < Content-Type: application\/json; charset=utf-8\n1 < Transfer-Encoding: chunked\n1 < Connection: keep-alive\n1 < Report-To: {\"group\":\"heroku-nel\",\"max_age\":3600,\"endpoints\":[{\"url\":\"https:\/\/nel.heroku.com\/reports?ts=1720639155&sid=c4c9725f-1ab0-44d8-820f-430df2718e11&s=Hq0DaArfVu3yjiKIPH%2FUUCZsgd%2FJKg7eXOYoP%2BUj4Lg%3D\"}]}\n1 < Reporting-Endpoints: heroku-nel=https:\/\/nel.heroku.com\/reports?ts=1720639155&sid=c4c9725f-1ab0-44d8-820f-430df2718e11&s=Hq0DaArfVu3yjiKIPH%2FUUCZsgd%2FJKg7eXOYoP%2BUj4Lg%3D\n1 < Nel: {\"report_to\":\"heroku-nel\",\"max_age\":3600,\"success_fraction\":0.005,\"failure_fraction\":0.05,\"response_headers\":[\"Via\"]}\n1 < X-Powered-By: Express\n1 < Access-Control-Allow-Origin: *\n1 < Etag: W\/\"2c1-N6Rqerxquq2kgQhL51EiSg4x0R8\"\n1 < Via: 1.1 vegur\n1 < Cache-Control: max-age=14400\n1 < CF-Cache-Status: HIT\n1 < Age: 6187\n1 < Vary: Accept-Encoding\n1 < Server: cloudflare\n1 < CF-RAY: 8a168b52eaf64284-BOM\n{\"page\":1,\"per_page\":6,\"total\":12,\"total_pages\":2,\"data\":[{\"id\":1,\"name\":\"cerulean\",\"year\":2000,\"color\":\"#98B2D1\",\"pantone_value\":\"15-4020\"},{\"id\":2,\"name\":\"fuchsia rose\",\"year\":2001,\"color\":\"#C74375\",\"pantone_value\":\"17-2031\"},{\"id\":3,\"name\":\"true red\",\"year\":2002,\"color\":\"#BF1932\",\"pantone_value\":\"19-1664\"},{\"id\":4,\"name\":\"aqua sky\",\"year\":2003,\"color\":\"#7BC4C4\",\"pantone_value\":\"14-4811\"},{\"id\":5,\"name\":\"tigerlily\",\"year\":2004,\"color\":\"#E2583E\",\"pantone_value\":\"17-1456\"},{\"id\":6,\"name\":\"blue turquoise\",\"year\":2005,\"color\":\"#53B0AE\",\"pantone_value\":\"15-5217\"}],\"support\":{\"url\":\"https:\/\/reqres.in\/#support-heading\",\"text\":\"To keep ReqRes free, contributions towards server costs are appreciated!\"}}\n\n"},{"result":{"nanos":61200,"startTime":1720677322701,"endTime":1720677322701,"millis":0.0612,"status":"passed"},"step":{"line":30,"prefix":"Then","index":3,"text":"status 200"}}],"line":26,"description":"","durationMillis":124.9597,"failed":false,"tags":["execute"],"executorName":"main","name":"Get list resourse","startTime":1720677322575,"refId":"[4:26]","endTime":1720677322702,"exampleIndex":-1},{"sectionIndex":4,"stepResults":[{"result":{"nanos":119600,"startTime":1720677322709,"endTime":1720677322709,"millis":0.1196,"status":"passed"},"step":{"line":34,"prefix":"Given","index":0,"text":"url baseURL"},"stepLog":"11:25:22.709 karate.env system property was: null \n"},{"result":{"nanos":456600,"startTime":1720677322710,"endTime":1720677322710,"millis":0.4566,"status":"passed"},"step":{"line":35,"prefix":"And","index":1,"text":"path 'unknown\/2'"}},{"result":{"nanos":61208300,"startTime":1720677322710,"endTime":1720677322771,"millis":61.2083,"status":"passed"},"step":{"line":36,"prefix":"When","index":2,"text":"method GET"},"stepLog":"11:25:22.711 request:\n1 > GET https:\/\/reqres.in\/api\/unknown\/2\n1 > Host: reqres.in\n1 > Connection: Keep-Alive\n1 > User-Agent: Apache-HttpClient\/4.5.14 (Java\/17.0.11)\n1 > Accept-Encoding: gzip,deflate\n\n\n11:25:22.770 response time in milliseconds: 57\n1 < 200\n1 < Date: Thu, 11 Jul 2024 05:55:22 GMT\n1 < Content-Type: application\/json; charset=utf-8\n1 < Transfer-Encoding: chunked\n1 < Connection: keep-alive\n1 < Report-To: {\"group\":\"heroku-nel\",\"max_age\":3600,\"endpoints\":[{\"url\":\"https:\/\/nel.heroku.com\/reports?ts=1720330977&sid=c4c9725f-1ab0-44d8-820f-430df2718e11&s=Din2ddNWiFHMlhMw50vcJzUZhCK5whql9r2ta1L%2Bf7A%3D\"}]}\n1 < Reporting-Endpoints: heroku-nel=https:\/\/nel.heroku.com\/reports?ts=1720330977&sid=c4c9725f-1ab0-44d8-820f-430df2718e11&s=Din2ddNWiFHMlhMw50vcJzUZhCK5whql9r2ta1L%2Bf7A%3D\n1 < Nel: {\"report_to\":\"heroku-nel\",\"max_age\":3600,\"success_fraction\":0.005,\"failure_fraction\":0.05,\"response_headers\":[\"Via\"]}\n1 < X-Powered-By: Express\n1 < Access-Control-Allow-Origin: *\n1 < Etag: W\/\"e8-ov4wWh4\/OY1IMQMqWgskYtOFnVs\"\n1 < Via: 1.1 vegur\n1 < Cache-Control: max-age=14400\n1 < CF-Cache-Status: HIT\n1 < Age: 4732\n1 < Vary: Accept-Encoding\n1 < Server: cloudflare\n1 < CF-RAY: 8a168b536d503a14-BOM\n{\"data\":{\"id\":2,\"name\":\"fuchsia rose\",\"year\":2001,\"color\":\"#C74375\",\"pantone_value\":\"17-2031\"},\"support\":{\"url\":\"https:\/\/reqres.in\/#support-heading\",\"text\":\"To keep ReqRes free, contributions towards server costs are appreciated!\"}}\n\n"},{"result":{"nanos":12500,"startTime":1720677322771,"endTime":1720677322771,"millis":0.0125,"status":"passed"},"step":{"line":37,"prefix":"Then","index":3,"text":"status 200"}}],"line":33,"description":"","durationMillis":61.797,"failed":false,"tags":["execute"],"executorName":"main","name":"Get single resourse not found","startTime":1720677322708,"refId":"[5:33]","endTime":1720677322771,"exampleIndex":-1},{"sectionIndex":5,"stepResults":[{"result":{"nanos":113500,"startTime":1720677322780,"endTime":1720677322780,"millis":0.1135,"status":"passed"},"step":{"line":41,"prefix":"Given","index":0,"text":"url baseURL"},"stepLog":"11:25:22.780 karate.env system property was: null \n"},{"result":{"nanos":404600,"startTime":1720677322780,"endTime":1720677322780,"millis":0.4046,"status":"passed"},"step":{"line":42,"prefix":"And","index":1,"text":"path 'unknown\/23'"}},{"result":{"nanos":704084800,"startTime":1720677322781,"endTime":1720677323485,"millis":704.0848,"status":"passed"},"step":{"line":43,"prefix":"When","index":2,"text":"method GET"},"stepLog":"11:25:22.783 request:\n1 > GET https:\/\/reqres.in\/api\/unknown\/23\n1 > Host: reqres.in\n1 > Connection: Keep-Alive\n1 > User-Agent: Apache-HttpClient\/4.5.14 (Java\/17.0.11)\n1 > Accept-Encoding: gzip,deflate\n\n\n11:25:23.484 response time in milliseconds: 700\n1 < 404\n1 < Date: Thu, 11 Jul 2024 05:55:23 GMT\n1 < Content-Type: application\/json; charset=utf-8\n1 < Content-Length: 2\n1 < Connection: keep-alive\n1 < Report-To: {\"group\":\"heroku-nel\",\"max_age\":3600,\"endpoints\":[{\"url\":\"https:\/\/nel.heroku.com\/reports?ts=1720677323&sid=c4c9725f-1ab0-44d8-820f-430df2718e11&s=4RjQQDs2rh9Dknmp4MWKvihTAog%2BPvtZhs6G5QDTB3E%3D\"}]}\n1 < Reporting-Endpoints: heroku-nel=https:\/\/nel.heroku.com\/reports?ts=1720677323&sid=c4c9725f-1ab0-44d8-820f-430df2718e11&s=4RjQQDs2rh9Dknmp4MWKvihTAog%2BPvtZhs6G5QDTB3E%3D\n1 < Nel: {\"report_to\":\"heroku-nel\",\"max_age\":3600,\"success_fraction\":0.005,\"failure_fraction\":0.05,\"response_headers\":[\"Via\"]}\n1 < X-Powered-By: Express\n1 < Access-Control-Allow-Origin: *\n1 < Etag: W\/\"2-vyGp6PvFo4RvsFtPoIWeCReyIC8\"\n1 < Via: 1.1 vegur\n1 < Cache-Control: max-age=14400\n1 < CF-Cache-Status: EXPIRED\n1 < Vary: Accept-Encoding\n1 < Server: cloudflare\n1 < CF-RAY: 8a168b541fb53c3a-BOM\n{}\n\n"},{"result":{"nanos":10500,"startTime":1720677323485,"endTime":1720677323485,"millis":0.0105,"status":"passed"},"step":{"line":44,"prefix":"Then","index":3,"text":"status 404"}}],"line":40,"description":"","durationMillis":704.6134,"failed":false,"tags":["execute"],"executorName":"main","name":"Get single resuorse","startTime":1720677322779,"refId":"[6:40]","endTime":1720677323485,"exampleIndex":-1},{"sectionIndex":6,"stepResults":[{"result":{"nanos":200500,"startTime":1720677323493,"endTime":1720677323493,"millis":0.2005,"status":"passed"},"step":{"line":49,"prefix":"Given","index":0,"text":"url baseURL"},"stepLog":"11:25:23.492 karate.env system property was: null \n"},{"result":{"nanos":230900,"startTime":1720677323493,"endTime":1720677323493,"millis":0.2309,"status":"passed"},"step":{"line":50,"prefix":"And","index":1,"text":"path 'users'"}},{"result":{"nanos":798700,"startTime":1720677323493,"endTime":1720677323494,"millis":0.7987,"status":"passed"},"step":{"line":51,"prefix":"And","index":2,"text":"param delay = 3"}},{"result":{"nanos":3812935300,"startTime":1720677323494,"endTime":1720677327307,"millis":3812.9353,"status":"passed"},"step":{"line":52,"prefix":"When","index":3,"text":"method GET"},"stepLog":"11:25:23.496 request:\n1 > GET https:\/\/reqres.in\/api\/users?delay=3\n1 > Host: reqres.in\n1 > Connection: Keep-Alive\n1 > User-Agent: Apache-HttpClient\/4.5.14 (Java\/17.0.11)\n1 > Accept-Encoding: gzip,deflate\n\n\n11:25:27.306 response time in milliseconds: 3808\n1 < 200\n1 < Date: Thu, 11 Jul 2024 05:55:27 GMT\n1 < Content-Type: application\/json; charset=utf-8\n1 < Transfer-Encoding: chunked\n1 < Connection: keep-alive\n1 < Report-To: {\"group\":\"heroku-nel\",\"max_age\":3600,\"endpoints\":[{\"url\":\"https:\/\/nel.heroku.com\/reports?ts=1720677324&sid=c4c9725f-1ab0-44d8-820f-430df2718e11&s=3TKmSqnGhltPJottPBp1tGuXk2miL4liOSpp%2BM3IeZE%3D\"}]}\n1 < Reporting-Endpoints: heroku-nel=https:\/\/nel.heroku.com\/reports?ts=1720677324&sid=c4c9725f-1ab0-44d8-820f-430df2718e11&s=3TKmSqnGhltPJottPBp1tGuXk2miL4liOSpp%2BM3IeZE%3D\n1 < Nel: {\"report_to\":\"heroku-nel\",\"max_age\":3600,\"success_fraction\":0.005,\"failure_fraction\":0.05,\"response_headers\":[\"Via\"]}\n1 < X-Powered-By: Express\n1 < Access-Control-Allow-Origin: *\n1 < Etag: W\/\"3e4-2RLXvr5wTg9YQ6aH95CkYoFNuO8\"\n1 < Via: 1.1 vegur\n1 < CF-Cache-Status: DYNAMIC\n1 < Server: cloudflare\n1 < CF-RAY: 8a168b58dac54901-BOM\n{\"page\":1,\"per_page\":6,\"total\":12,\"total_pages\":2,\"data\":[{\"id\":1,\"email\":\"george.bluth@reqres.in\",\"first_name\":\"George\",\"last_name\":\"Bluth\",\"avatar\":\"https:\/\/reqres.in\/img\/faces\/1-image.jpg\"},{\"id\":2,\"email\":\"janet.weaver@reqres.in\",\"first_name\":\"Janet\",\"last_name\":\"Weaver\",\"avatar\":\"https:\/\/reqres.in\/img\/faces\/2-image.jpg\"},{\"id\":3,\"email\":\"emma.wong@reqres.in\",\"first_name\":\"Emma\",\"last_name\":\"Wong\",\"avatar\":\"https:\/\/reqres.in\/img\/faces\/3-image.jpg\"},{\"id\":4,\"email\":\"eve.holt@reqres.in\",\"first_name\":\"Eve\",\"last_name\":\"Holt\",\"avatar\":\"https:\/\/reqres.in\/img\/faces\/4-image.jpg\"},{\"id\":5,\"email\":\"charles.morris@reqres.in\",\"first_name\":\"Charles\",\"last_name\":\"Morris\",\"avatar\":\"https:\/\/reqres.in\/img\/faces\/5-image.jpg\"},{\"id\":6,\"email\":\"tracey.ramos@reqres.in\",\"first_name\":\"Tracey\",\"last_name\":\"Ramos\",\"avatar\":\"https:\/\/reqres.in\/img\/faces\/6-image.jpg\"}],\"support\":{\"url\":\"https:\/\/reqres.in\/#support-heading\",\"text\":\"To keep ReqRes free, contributions towards server costs are appreciated!\"}}\n\n"},{"result":{"nanos":15700,"startTime":1720677327307,"endTime":1720677327307,"millis":0.0157,"status":"passed"},"step":{"line":53,"prefix":"Then","index":4,"text":"status 200"}}],"line":48,"description":"","durationMillis":3814.1811,"failed":false,"tags":["execute"],"executorName":"main","name":"Get delay response","startTime":1720677323491,"refId":"[7:48]","endTime":1720677327307,"exampleIndex":-1}],"callDepth":0,"name":"Request Responce-Get feature","description":"","resultDate":"2024-07-11 11:25:27 AM","durationMillis":5749.4624,"passedCount":7}