{"failedCount":0,"prefixedPath":"classpath:reqresusers\/feature\/requesusers_get.feature","packageQualifiedName":"reqresusers.feature.requesusers_get","loopIndex":-1,"relativePath":"reqresusers\/feature\/requesusers_get.feature","scenarioResults":[{"sectionIndex":0,"stepResults":[{"result":{"nanos":1609500,"startTime":1720594517125,"endTime":1720594517127,"millis":1.6095,"status":"passed"},"step":{"line":5,"prefix":"Given","index":0,"text":"url baseURL"},"stepLog":"12:25:17.038 karate.env system property was: null \n"},{"result":{"nanos":1129400,"startTime":1720594517132,"endTime":1720594517133,"millis":1.1294,"status":"passed"},"step":{"line":6,"prefix":"And","index":1,"text":"path 'users'"}},{"result":{"nanos":5593400,"startTime":1720594517134,"endTime":1720594517140,"millis":5.5934,"status":"passed"},"step":{"line":7,"prefix":"And","index":2,"text":"param page = 2"}},{"result":{"nanos":1117606700,"startTime":1720594517140,"endTime":1720594518258,"millis":1117.6067,"status":"passed"},"step":{"line":8,"prefix":"When","index":3,"text":"method GET"},"stepLog":"12:25:17.728 request:\n1 > GET https:\/\/reqres.in\/api\/users?page=2\n1 > Host: reqres.in\n1 > Connection: Keep-Alive\n1 > User-Agent: Apache-HttpClient\/4.5.14 (Java\/17.0.11)\n1 > Accept-Encoding: gzip,deflate\n\n\n12:25:18.212 response time in milliseconds: 477\n1 < 200\n1 < Date: Wed, 10 Jul 2024 06:55:18 GMT\n1 < Content-Type: application\/json; charset=utf-8\n1 < Transfer-Encoding: chunked\n1 < Connection: keep-alive\n1 < Report-To: {\"group\":\"heroku-nel\",\"max_age\":3600,\"endpoints\":[{\"url\":\"https:\/\/nel.heroku.com\/reports?ts=1720540419&sid=c4c9725f-1ab0-44d8-820f-430df2718e11&s=8YL%2BYY9vzD6%2FkJAjB2hUesQpEGzfz1ZWdXor%2Fv9HvDI%3D\"}]}\n1 < Reporting-Endpoints: heroku-nel=https:\/\/nel.heroku.com\/reports?ts=1720540419&sid=c4c9725f-1ab0-44d8-820f-430df2718e11&s=8YL%2BYY9vzD6%2FkJAjB2hUesQpEGzfz1ZWdXor%2Fv9HvDI%3D\n1 < Nel: {\"report_to\":\"heroku-nel\",\"max_age\":3600,\"success_fraction\":0.005,\"failure_fraction\":0.05,\"response_headers\":[\"Via\"]}\n1 < X-Powered-By: Express\n1 < Access-Control-Allow-Origin: *\n1 < Etag: W\/\"406-ut0vzoCuidvyMf8arZpMpJ6ZRDw\"\n1 < Via: 1.1 vegur\n1 < Cache-Control: max-age=14400\n1 < CF-Cache-Status: HIT\n1 < Age: 2469\n1 < Vary: Accept-Encoding\n1 < Server: cloudflare\n1 < CF-RAY: 8a0ea5baabd23d42-BOM\n{\"page\":2,\"per_page\":6,\"total\":12,\"total_pages\":2,\"data\":[{\"id\":7,\"email\":\"michael.lawson@reqres.in\",\"first_name\":\"Michael\",\"last_name\":\"Lawson\",\"avatar\":\"https:\/\/reqres.in\/img\/faces\/7-image.jpg\"},{\"id\":8,\"email\":\"lindsay.ferguson@reqres.in\",\"first_name\":\"Lindsay\",\"last_name\":\"Ferguson\",\"avatar\":\"https:\/\/reqres.in\/img\/faces\/8-image.jpg\"},{\"id\":9,\"email\":\"tobias.funke@reqres.in\",\"first_name\":\"Tobias\",\"last_name\":\"Funke\",\"avatar\":\"https:\/\/reqres.in\/img\/faces\/9-image.jpg\"},{\"id\":10,\"email\":\"byron.fields@reqres.in\",\"first_name\":\"Byron\",\"last_name\":\"Fields\",\"avatar\":\"https:\/\/reqres.in\/img\/faces\/10-image.jpg\"},{\"id\":11,\"email\":\"george.edwards@reqres.in\",\"first_name\":\"George\",\"last_name\":\"Edwards\",\"avatar\":\"https:\/\/reqres.in\/img\/faces\/11-image.jpg\"},{\"id\":12,\"email\":\"rachel.howell@reqres.in\",\"first_name\":\"Rachel\",\"last_name\":\"Howell\",\"avatar\":\"https:\/\/reqres.in\/img\/faces\/12-image.jpg\"}],\"support\":{\"url\":\"https:\/\/reqres.in\/#support-heading\",\"text\":\"To keep ReqRes free, contributions towards server costs are appreciated!\"}}\n\n"},{"result":{"nanos":31200,"startTime":1720594518257,"endTime":1720594518257,"millis":0.0312,"status":"passed"},"step":{"line":9,"prefix":"Then","index":4,"text":"status 200"}}],"line":4,"description":"","durationMillis":1125.9702,"failed":false,"tags":["execute"],"executorName":"main","name":"Get all user details","startTime":1720594516971,"refId":"[1:4]","endTime":1720594518257,"exampleIndex":-1},{"sectionIndex":1,"stepResults":[{"result":{"nanos":562400,"startTime":1720594518295,"endTime":1720594518296,"millis":0.5624,"status":"passed"},"step":{"line":13,"prefix":"Given","index":0,"text":"url baseURL"},"stepLog":"12:25:18.292 karate.env system property was: null \n"},{"result":{"nanos":1256700,"startTime":1720594518295,"endTime":1720594518296,"millis":1.2567,"status":"passed"},"step":{"line":14,"prefix":"And","index":1,"text":"path 'users\/2'"}},{"result":{"nanos":102709000,"startTime":1720594518297,"endTime":1720594518400,"millis":102.709,"status":"passed"},"step":{"line":15,"prefix":"When","index":2,"text":"method GET"},"stepLog":"12:25:18.300 request:\n1 > GET https:\/\/reqres.in\/api\/users\/2\n1 > Host: reqres.in\n1 > Connection: Keep-Alive\n1 > User-Agent: Apache-HttpClient\/4.5.14 (Java\/17.0.11)\n1 > Accept-Encoding: gzip,deflate\n\n\n12:25:18.397 response time in milliseconds: 94\n1 < 200\n1 < Date: Wed, 10 Jul 2024 06:55:18 GMT\n1 < Content-Type: application\/json; charset=utf-8\n1 < Transfer-Encoding: chunked\n1 < Connection: keep-alive\n1 < Report-To: {\"group\":\"heroku-nel\",\"max_age\":3600,\"endpoints\":[{\"url\":\"https:\/\/nel.heroku.com\/reports?ts=1720578179&sid=c4c9725f-1ab0-44d8-820f-430df2718e11&s=0U6laTZdiFWeNVMAzcdEYWwo%2FU4x8B%2Bhb7y0gMN2TLg%3D\"}]}\n1 < Reporting-Endpoints: heroku-nel=https:\/\/nel.heroku.com\/reports?ts=1720578179&sid=c4c9725f-1ab0-44d8-820f-430df2718e11&s=0U6laTZdiFWeNVMAzcdEYWwo%2FU4x8B%2Bhb7y0gMN2TLg%3D\n1 < Nel: {\"report_to\":\"heroku-nel\",\"max_age\":3600,\"success_fraction\":0.005,\"failure_fraction\":0.05,\"response_headers\":[\"Via\"]}\n1 < X-Powered-By: Express\n1 < Access-Control-Allow-Origin: *\n1 < Etag: W\/\"118-pbdwwFo9SKNhD3Lx5iHJyngpq00\"\n1 < Via: 1.1 vegur\n1 < Cache-Control: max-age=14400\n1 < CF-Cache-Status: HIT\n1 < Age: 1758\n1 < Vary: Accept-Encoding\n1 < Server: cloudflare\n1 < CF-RAY: 8a0ea5bbe96585ba-BOM\n{\"data\":{\"id\":2,\"email\":\"janet.weaver@reqres.in\",\"first_name\":\"Janet\",\"last_name\":\"Weaver\",\"avatar\":\"https:\/\/reqres.in\/img\/faces\/2-image.jpg\"},\"support\":{\"url\":\"https:\/\/reqres.in\/#support-heading\",\"text\":\"To keep ReqRes free, contributions towards server costs are appreciated!\"}}\n\n"},{"result":{"nanos":16000,"startTime":1720594518400,"endTime":1720594518400,"millis":0.016,"status":"passed"},"step":{"line":16,"prefix":"Then","index":3,"text":"status 200"}}],"line":12,"description":"","durationMillis":104.5441,"failed":false,"tags":["execute"],"executorName":"main","name":"Get specific user details by id","startTime":1720594518286,"refId":"[2:12]","endTime":1720594518400,"exampleIndex":-1},{"sectionIndex":2,"stepResults":[{"result":{"nanos":438500,"startTime":1720594518424,"endTime":1720594518424,"millis":0.4385,"status":"passed"},"step":{"line":21,"prefix":"Given","index":0,"text":"url baseURL"},"stepLog":"12:25:18.422 karate.env system property was: null \n"},{"result":{"nanos":954300,"startTime":1720594518425,"endTime":1720594518426,"millis":0.9543,"status":"passed"},"step":{"line":22,"prefix":"And","index":1,"text":"path 'users\/23'"}},{"result":{"nanos":768563900,"startTime":1720594518426,"endTime":1720594519195,"millis":768.5639,"status":"passed"},"step":{"line":23,"prefix":"When","index":2,"text":"method GET"},"stepLog":"12:25:18.430 request:\n1 > GET https:\/\/reqres.in\/api\/users\/23\n1 > Host: reqres.in\n1 > Connection: Keep-Alive\n1 > User-Agent: Apache-HttpClient\/4.5.14 (Java\/17.0.11)\n1 > Accept-Encoding: gzip,deflate\n\n\n12:25:19.192 response time in milliseconds: 759\n1 < 404\n1 < Date: Wed, 10 Jul 2024 06:55:19 GMT\n1 < Content-Type: application\/json; charset=utf-8\n1 < Content-Length: 2\n1 < Connection: keep-alive\n1 < Report-To: {\"group\":\"heroku-nel\",\"max_age\":3600,\"endpoints\":[{\"url\":\"https:\/\/nel.heroku.com\/reports?ts=1720594519&sid=c4c9725f-1ab0-44d8-820f-430df2718e11&s=EBoilAZUZTfZpw0erS3%2FZ5zEpN4mDA1AImRaKx1cISc%3D\"}]}\n1 < Reporting-Endpoints: heroku-nel=https:\/\/nel.heroku.com\/reports?ts=1720594519&sid=c4c9725f-1ab0-44d8-820f-430df2718e11&s=EBoilAZUZTfZpw0erS3%2FZ5zEpN4mDA1AImRaKx1cISc%3D\n1 < Nel: {\"report_to\":\"heroku-nel\",\"max_age\":3600,\"success_fraction\":0.005,\"failure_fraction\":0.05,\"response_headers\":[\"Via\"]}\n1 < X-Powered-By: Express\n1 < Access-Control-Allow-Origin: *\n1 < Etag: W\/\"2-vyGp6PvFo4RvsFtPoIWeCReyIC8\"\n1 < Via: 1.1 vegur\n1 < Cache-Control: max-age=14400\n1 < CF-Cache-Status: EXPIRED\n1 < Vary: Accept-Encoding\n1 < Server: cloudflare\n1 < CF-RAY: 8a0ea5bde8f14478-BOM\n{}\n\n"},{"result":{"nanos":81500,"startTime":1720594519195,"endTime":1720594519195,"millis":0.0815,"status":"passed"},"step":{"line":24,"prefix":"Then","index":3,"text":"status 404"}}],"line":20,"description":"","durationMillis":770.0382,"failed":false,"tags":["execute"],"executorName":"main","name":"Get empty user details","startTime":1720594518420,"refId":"[3:20]","endTime":1720594519195,"exampleIndex":-1},{"sectionIndex":3,"stepResults":[{"result":{"nanos":530400,"startTime":1720594519214,"endTime":1720594519215,"millis":0.5304,"status":"passed"},"step":{"line":28,"prefix":"Given","index":0,"text":"url baseURL"},"stepLog":"12:25:19.213 karate.env system property was: null \n"},{"result":{"nanos":1230900,"startTime":1720594519215,"endTime":1720594519216,"millis":1.2309,"status":"passed"},"step":{"line":29,"prefix":"And","index":1,"text":"path 'users'"}},{"result":{"nanos":1395200,"startTime":1720594519216,"endTime":1720594519217,"millis":1.3952,"status":"passed"},"step":{"line":30,"prefix":"And","index":2,"text":"param delay = 3"}},{"result":{"nanos":3464989600,"startTime":1720594519218,"endTime":1720594522683,"millis":3464.9896,"status":"passed"},"step":{"line":31,"prefix":"When","index":3,"text":"method GET"},"stepLog":"12:25:19.221 request:\n1 > GET https:\/\/reqres.in\/api\/users?delay=3\n1 > Host: reqres.in\n1 > Connection: Keep-Alive\n1 > User-Agent: Apache-HttpClient\/4.5.14 (Java\/17.0.11)\n1 > Accept-Encoding: gzip,deflate\n\n\n12:25:22.681 response time in milliseconds: 3459\n1 < 200\n1 < Date: Wed, 10 Jul 2024 06:55:22 GMT\n1 < Content-Type: application\/json; charset=utf-8\n1 < Transfer-Encoding: chunked\n1 < Connection: keep-alive\n1 < Report-To: {\"group\":\"heroku-nel\",\"max_age\":3600,\"endpoints\":[{\"url\":\"https:\/\/nel.heroku.com\/reports?ts=1720594519&sid=c4c9725f-1ab0-44d8-820f-430df2718e11&s=EBoilAZUZTfZpw0erS3%2FZ5zEpN4mDA1AImRaKx1cISc%3D\"}]}\n1 < Reporting-Endpoints: heroku-nel=https:\/\/nel.heroku.com\/reports?ts=1720594519&sid=c4c9725f-1ab0-44d8-820f-430df2718e11&s=EBoilAZUZTfZpw0erS3%2FZ5zEpN4mDA1AImRaKx1cISc%3D\n1 < Nel: {\"report_to\":\"heroku-nel\",\"max_age\":3600,\"success_fraction\":0.005,\"failure_fraction\":0.05,\"response_headers\":[\"Via\"]}\n1 < X-Powered-By: Express\n1 < Access-Control-Allow-Origin: *\n1 < Etag: W\/\"3e4-2RLXvr5wTg9YQ6aH95CkYoFNuO8\"\n1 < Via: 1.1 vegur\n1 < CF-Cache-Status: DYNAMIC\n1 < Server: cloudflare\n1 < CF-RAY: 8a0ea5c178413fc1-BOM\n{\"page\":1,\"per_page\":6,\"total\":12,\"total_pages\":2,\"data\":[{\"id\":1,\"email\":\"george.bluth@reqres.in\",\"first_name\":\"George\",\"last_name\":\"Bluth\",\"avatar\":\"https:\/\/reqres.in\/img\/faces\/1-image.jpg\"},{\"id\":2,\"email\":\"janet.weaver@reqres.in\",\"first_name\":\"Janet\",\"last_name\":\"Weaver\",\"avatar\":\"https:\/\/reqres.in\/img\/faces\/2-image.jpg\"},{\"id\":3,\"email\":\"emma.wong@reqres.in\",\"first_name\":\"Emma\",\"last_name\":\"Wong\",\"avatar\":\"https:\/\/reqres.in\/img\/faces\/3-image.jpg\"},{\"id\":4,\"email\":\"eve.holt@reqres.in\",\"first_name\":\"Eve\",\"last_name\":\"Holt\",\"avatar\":\"https:\/\/reqres.in\/img\/faces\/4-image.jpg\"},{\"id\":5,\"email\":\"charles.morris@reqres.in\",\"first_name\":\"Charles\",\"last_name\":\"Morris\",\"avatar\":\"https:\/\/reqres.in\/img\/faces\/5-image.jpg\"},{\"id\":6,\"email\":\"tracey.ramos@reqres.in\",\"first_name\":\"Tracey\",\"last_name\":\"Ramos\",\"avatar\":\"https:\/\/reqres.in\/img\/faces\/6-image.jpg\"}],\"support\":{\"url\":\"https:\/\/reqres.in\/#support-heading\",\"text\":\"To keep ReqRes free, contributions towards server costs are appreciated!\"}}\n\n"},{"result":{"nanos":12900,"startTime":1720594522683,"endTime":1720594522683,"millis":0.0129,"status":"passed"},"step":{"line":32,"prefix":"Then","index":4,"text":"status 200"}}],"line":27,"description":"","durationMillis":3468.159,"failed":false,"tags":["execute"],"executorName":"main","name":"Get delaying user details","startTime":1720594519210,"refId":"[4:27]","endTime":1720594522683,"exampleIndex":-1}],"callDepth":0,"name":"Request Responce-Get feature","description":"","resultDate":"2024-07-10 12:25:22 PM","durationMillis":5468.7115,"passedCount":4}