{"failedCount":0,"prefixedPath":"classpath:userapi\/feature\/reqresusers_get.feature","packageQualifiedName":"userapi.feature.reqresusers_get","loopIndex":-1,"relativePath":"userapi\/feature\/reqresusers_get.feature","scenarioResults":[{"sectionIndex":0,"stepResults":[{"result":{"nanos":244600,"startTime":1720687234307,"endTime":1720687234307,"millis":0.2446,"status":"passed"},"step":{"line":5,"prefix":"Given","index":0,"text":"url baseURL"},"stepLog":"14:10:34.305 karate.env system property was: null \n"},{"result":{"nanos":515000,"startTime":1720687234307,"endTime":1720687234308,"millis":0.515,"status":"passed"},"step":{"line":6,"prefix":"And","index":1,"text":"path 'users'"}},{"result":{"nanos":1348400,"startTime":1720687234307,"endTime":1720687234308,"millis":1.3484,"status":"passed"},"step":{"line":7,"prefix":"And","index":2,"text":"param page = 2"}},{"result":{"nanos":74107500,"startTime":1720687234309,"endTime":1720687234383,"millis":74.1075,"status":"passed"},"step":{"line":8,"prefix":"When","index":3,"text":"method GET"},"stepLog":"14:10:34.311 request:\n1 > GET https:\/\/reqres.in\/api\/users?page=2\n1 > Host: reqres.in\n1 > Connection: Keep-Alive\n1 > User-Agent: Apache-HttpClient\/4.5.14 (Java\/17.0.11)\n1 > Accept-Encoding: gzip,deflate\n\n\n14:10:34.376 response time in milliseconds: 62\n1 < 200\n1 < Date: Thu, 11 Jul 2024 08:40:34 GMT\n1 < Content-Type: application\/json; charset=utf-8\n1 < Transfer-Encoding: chunked\n1 < Connection: keep-alive\n1 < Report-To: {\"group\":\"heroku-nel\",\"max_age\":3600,\"endpoints\":[{\"url\":\"https:\/\/nel.heroku.com\/reports?ts=1720686555&sid=c4c9725f-1ab0-44d8-820f-430df2718e11&s=Nzea5FG04d9NxC0DluYfbqGRx7Z0fANZvK1fXNTYNLE%3D\"}]}\n1 < Reporting-Endpoints: heroku-nel=https:\/\/nel.heroku.com\/reports?ts=1720686555&sid=c4c9725f-1ab0-44d8-820f-430df2718e11&s=Nzea5FG04d9NxC0DluYfbqGRx7Z0fANZvK1fXNTYNLE%3D\n1 < Nel: {\"report_to\":\"heroku-nel\",\"max_age\":3600,\"success_fraction\":0.005,\"failure_fraction\":0.05,\"response_headers\":[\"Via\"]}\n1 < X-Powered-By: Express\n1 < Access-Control-Allow-Origin: *\n1 < Etag: W\/\"406-ut0vzoCuidvyMf8arZpMpJ6ZRDw\"\n1 < Via: 1.1 vegur\n1 < Cache-Control: max-age=14400\n1 < CF-Cache-Status: HIT\n1 < Age: 678\n1 < Vary: Accept-Encoding\n1 < Server: cloudflare\n1 < CF-RAY: 8a177d4ede623cc3-BOM\n{\"page\":2,\"per_page\":6,\"total\":12,\"total_pages\":2,\"data\":[{\"id\":7,\"email\":\"michael.lawson@reqres.in\",\"first_name\":\"Michael\",\"last_name\":\"Lawson\",\"avatar\":\"https:\/\/reqres.in\/img\/faces\/7-image.jpg\"},{\"id\":8,\"email\":\"lindsay.ferguson@reqres.in\",\"first_name\":\"Lindsay\",\"last_name\":\"Ferguson\",\"avatar\":\"https:\/\/reqres.in\/img\/faces\/8-image.jpg\"},{\"id\":9,\"email\":\"tobias.funke@reqres.in\",\"first_name\":\"Tobias\",\"last_name\":\"Funke\",\"avatar\":\"https:\/\/reqres.in\/img\/faces\/9-image.jpg\"},{\"id\":10,\"email\":\"byron.fields@reqres.in\",\"first_name\":\"Byron\",\"last_name\":\"Fields\",\"avatar\":\"https:\/\/reqres.in\/img\/faces\/10-image.jpg\"},{\"id\":11,\"email\":\"george.edwards@reqres.in\",\"first_name\":\"George\",\"last_name\":\"Edwards\",\"avatar\":\"https:\/\/reqres.in\/img\/faces\/11-image.jpg\"},{\"id\":12,\"email\":\"rachel.howell@reqres.in\",\"first_name\":\"Rachel\",\"last_name\":\"Howell\",\"avatar\":\"https:\/\/reqres.in\/img\/faces\/12-image.jpg\"}],\"support\":{\"url\":\"https:\/\/reqres.in\/#support-heading\",\"text\":\"To keep ReqRes free, contributions towards server costs are appreciated!\"}}\n\n"},{"result":{"nanos":15600,"startTime":1720687234383,"endTime":1720687234383,"millis":0.0156,"status":"passed"},"step":{"line":9,"prefix":"Then","index":4,"text":"status 200"}}],"line":4,"description":"","durationMillis":76.2311,"failed":false,"tags":["execute"],"executorName":"main","name":"Get list users","startTime":1720687234303,"refId":"[1:4]","endTime":1720687234383,"exampleIndex":-1},{"sectionIndex":1,"stepResults":[{"result":{"nanos":309800,"startTime":1720687234395,"endTime":1720687234395,"millis":0.3098,"status":"passed"},"step":{"line":13,"prefix":"Given","index":0,"text":"url baseURL"},"stepLog":"14:10:34.393 karate.env system property was: null \n"},{"result":{"nanos":869600,"startTime":1720687234395,"endTime":1720687234396,"millis":0.8696,"status":"passed"},"step":{"line":14,"prefix":"And","index":1,"text":"path 'users\/2'"}},{"result":{"nanos":61030500,"startTime":1720687234396,"endTime":1720687234457,"millis":61.0305,"status":"passed"},"step":{"line":15,"prefix":"When","index":2,"text":"method GET"},"stepLog":"14:10:34.398 request:\n1 > GET https:\/\/reqres.in\/api\/users\/2\n1 > Host: reqres.in\n1 > Connection: Keep-Alive\n1 > User-Agent: Apache-HttpClient\/4.5.14 (Java\/17.0.11)\n1 > Accept-Encoding: gzip,deflate\n\n\n14:10:34.455 response time in milliseconds: 55\n1 < 200\n1 < Date: Thu, 11 Jul 2024 08:40:34 GMT\n1 < Content-Type: application\/json; charset=utf-8\n1 < Transfer-Encoding: chunked\n1 < Connection: keep-alive\n1 < Report-To: {\"group\":\"heroku-nel\",\"max_age\":3600,\"endpoints\":[{\"url\":\"https:\/\/nel.heroku.com\/reports?ts=1720687209&sid=c4c9725f-1ab0-44d8-820f-430df2718e11&s=2RdJ9OOcnRGArzrtIZtUr4ec3ZdEBNwcrg6l85cf8Ks%3D\"}]}\n1 < Reporting-Endpoints: heroku-nel=https:\/\/nel.heroku.com\/reports?ts=1720687209&sid=c4c9725f-1ab0-44d8-820f-430df2718e11&s=2RdJ9OOcnRGArzrtIZtUr4ec3ZdEBNwcrg6l85cf8Ks%3D\n1 < Nel: {\"report_to\":\"heroku-nel\",\"max_age\":3600,\"success_fraction\":0.005,\"failure_fraction\":0.05,\"response_headers\":[\"Via\"]}\n1 < X-Powered-By: Express\n1 < Access-Control-Allow-Origin: *\n1 < Etag: W\/\"118-pbdwwFo9SKNhD3Lx5iHJyngpq00\"\n1 < Via: 1.1 vegur\n1 < Cache-Control: max-age=14400\n1 < CF-Cache-Status: HIT\n1 < Age: 25\n1 < Vary: Accept-Encoding\n1 < Server: cloudflare\n1 < CF-RAY: 8a177d4f5e893ac8-BOM\n{\"data\":{\"id\":2,\"email\":\"janet.weaver@reqres.in\",\"first_name\":\"Janet\",\"last_name\":\"Weaver\",\"avatar\":\"https:\/\/reqres.in\/img\/faces\/2-image.jpg\"},\"support\":{\"url\":\"https:\/\/reqres.in\/#support-heading\",\"text\":\"To keep ReqRes free, contributions towards server costs are appreciated!\"}}\n\n"},{"result":{"nanos":15800,"startTime":1720687234457,"endTime":1720687234457,"millis":0.0158,"status":"passed"},"step":{"line":16,"prefix":"Then","index":3,"text":"status 200"}}],"line":12,"description":"","durationMillis":62.2257,"failed":false,"tags":["execute"],"executorName":"main","name":"Get single user details","startTime":1720687234392,"refId":"[2:12]","endTime":1720687234457,"exampleIndex":-1},{"sectionIndex":2,"stepResults":[{"result":{"nanos":215200,"startTime":1720687234468,"endTime":1720687234468,"millis":0.2152,"status":"passed"},"step":{"line":20,"prefix":"Given","index":0,"text":"url baseURL"},"stepLog":"14:10:34.467 karate.env system property was: null \n"},{"result":{"nanos":457300,"startTime":1720687234468,"endTime":1720687234468,"millis":0.4573,"status":"passed"},"step":{"line":21,"prefix":"And","index":1,"text":"path 'users\/23'"}},{"result":{"nanos":654970400,"startTime":1720687234469,"endTime":1720687235124,"millis":654.9704,"status":"passed"},"step":{"line":22,"prefix":"When","index":2,"text":"method GET"},"stepLog":"14:10:34.470 request:\n1 > GET https:\/\/reqres.in\/api\/users\/23\n1 > Host: reqres.in\n1 > Connection: Keep-Alive\n1 > User-Agent: Apache-HttpClient\/4.5.14 (Java\/17.0.11)\n1 > Accept-Encoding: gzip,deflate\n\n\n14:10:35.122 response time in milliseconds: 650\n1 < 404\n1 < Date: Thu, 11 Jul 2024 08:40:35 GMT\n1 < Content-Type: application\/json; charset=utf-8\n1 < Content-Length: 2\n1 < Connection: keep-alive\n1 < Report-To: {\"group\":\"heroku-nel\",\"max_age\":3600,\"endpoints\":[{\"url\":\"https:\/\/nel.heroku.com\/reports?ts=1720687235&sid=c4c9725f-1ab0-44d8-820f-430df2718e11&s=uiGHGgq4E0tM1LW1JgZ9cMmXQh9syvsT6jU22DxYaVE%3D\"}]}\n1 < Reporting-Endpoints: heroku-nel=https:\/\/nel.heroku.com\/reports?ts=1720687235&sid=c4c9725f-1ab0-44d8-820f-430df2718e11&s=uiGHGgq4E0tM1LW1JgZ9cMmXQh9syvsT6jU22DxYaVE%3D\n1 < Nel: {\"report_to\":\"heroku-nel\",\"max_age\":3600,\"success_fraction\":0.005,\"failure_fraction\":0.05,\"response_headers\":[\"Via\"]}\n1 < X-Powered-By: Express\n1 < Access-Control-Allow-Origin: *\n1 < Etag: W\/\"2-vyGp6PvFo4RvsFtPoIWeCReyIC8\"\n1 < Via: 1.1 vegur\n1 < Cache-Control: max-age=14400\n1 < CF-Cache-Status: EXPIRED\n1 < Vary: Accept-Encoding\n1 < Server: cloudflare\n1 < CF-RAY: 8a177d4fecae3c3a-BOM\n{}\n\n"},{"result":{"nanos":14600,"startTime":1720687235124,"endTime":1720687235124,"millis":0.0146,"status":"passed"},"step":{"line":23,"prefix":"Then","index":3,"text":"status 404"}}],"line":19,"description":"","durationMillis":655.6575,"failed":false,"tags":["execute"],"executorName":"main","name":"Get single user not found","startTime":1720687234466,"refId":"[3:19]","endTime":1720687235124,"exampleIndex":-1},{"sectionIndex":3,"stepResults":[{"result":{"nanos":382400,"startTime":1720687235135,"endTime":1720687235135,"millis":0.3824,"status":"passed"},"step":{"line":27,"prefix":"Given","index":0,"text":"url baseURL"},"stepLog":"14:10:35.134 karate.env system property was: null \n"},{"result":{"nanos":658800,"startTime":1720687235136,"endTime":1720687235137,"millis":0.6588,"status":"passed"},"step":{"line":28,"prefix":"And","index":1,"text":"path 'unknown'"}},{"result":{"nanos":706212800,"startTime":1720687235137,"endTime":1720687235843,"millis":706.2128,"status":"passed"},"step":{"line":29,"prefix":"When","index":2,"text":"method GET"},"stepLog":"14:10:35.138 request:\n1 > GET https:\/\/reqres.in\/api\/unknown\n1 > Host: reqres.in\n1 > Connection: Keep-Alive\n1 > User-Agent: Apache-HttpClient\/4.5.14 (Java\/17.0.11)\n1 > Accept-Encoding: gzip,deflate\n\n\n14:10:35.841 response time in milliseconds: 701\n1 < 200\n1 < Date: Thu, 11 Jul 2024 08:40:35 GMT\n1 < Content-Type: application\/json; charset=utf-8\n1 < Transfer-Encoding: chunked\n1 < Connection: keep-alive\n1 < Report-To: {\"group\":\"heroku-nel\",\"max_age\":3600,\"endpoints\":[{\"url\":\"https:\/\/nel.heroku.com\/reports?ts=1720188855&sid=c4c9725f-1ab0-44d8-820f-430df2718e11&s=QnHU8LTTmq4pm0hfZVCSQggEipk9sZWtkmpQWqEv9YI%3D\"}]}\n1 < Reporting-Endpoints: heroku-nel=https:\/\/nel.heroku.com\/reports?ts=1720188855&sid=c4c9725f-1ab0-44d8-820f-430df2718e11&s=QnHU8LTTmq4pm0hfZVCSQggEipk9sZWtkmpQWqEv9YI%3D\n1 < Nel: {\"report_to\":\"heroku-nel\",\"max_age\":3600,\"success_fraction\":0.005,\"failure_fraction\":0.05,\"response_headers\":[\"Via\"]}\n1 < X-Powered-By: Express\n1 < Access-Control-Allow-Origin: *\n1 < Etag: W\/\"2c1-N6Rqerxquq2kgQhL51EiSg4x0R8\"\n1 < Via: 1.1 vegur\n1 < Cache-Control: max-age=14400\n1 < CF-Cache-Status: REVALIDATED\n1 < Vary: Accept-Encoding\n1 < Server: cloudflare\n1 < CF-RAY: 8a177d53fa443e16-BOM\n{\"page\":1,\"per_page\":6,\"total\":12,\"total_pages\":2,\"data\":[{\"id\":1,\"name\":\"cerulean\",\"year\":2000,\"color\":\"#98B2D1\",\"pantone_value\":\"15-4020\"},{\"id\":2,\"name\":\"fuchsia rose\",\"year\":2001,\"color\":\"#C74375\",\"pantone_value\":\"17-2031\"},{\"id\":3,\"name\":\"true red\",\"year\":2002,\"color\":\"#BF1932\",\"pantone_value\":\"19-1664\"},{\"id\":4,\"name\":\"aqua sky\",\"year\":2003,\"color\":\"#7BC4C4\",\"pantone_value\":\"14-4811\"},{\"id\":5,\"name\":\"tigerlily\",\"year\":2004,\"color\":\"#E2583E\",\"pantone_value\":\"17-1456\"},{\"id\":6,\"name\":\"blue turquoise\",\"year\":2005,\"color\":\"#53B0AE\",\"pantone_value\":\"15-5217\"}],\"support\":{\"url\":\"https:\/\/reqres.in\/#support-heading\",\"text\":\"To keep ReqRes free, contributions towards server costs are appreciated!\"}}\n\n"},{"result":{"nanos":10200,"startTime":1720687235842,"endTime":1720687235842,"millis":0.0102,"status":"passed"},"step":{"line":30,"prefix":"Then","index":3,"text":"status 200"}}],"line":26,"description":"","durationMillis":707.2642,"failed":false,"tags":["execute"],"executorName":"main","name":"Get list resourse","startTime":1720687235133,"refId":"[4:26]","endTime":1720687235842,"exampleIndex":-1},{"sectionIndex":4,"stepResults":[{"result":{"nanos":200800,"startTime":1720687235853,"endTime":1720687235853,"millis":0.2008,"status":"passed"},"step":{"line":34,"prefix":"Given","index":0,"text":"url baseURL"},"stepLog":"14:10:35.852 karate.env system property was: null \n"},{"result":{"nanos":623400,"startTime":1720687235853,"endTime":1720687235854,"millis":0.6234,"status":"passed"},"step":{"line":35,"prefix":"And","index":1,"text":"path 'unknown\/2'"}},{"result":{"nanos":66523700,"startTime":1720687235854,"endTime":1720687235921,"millis":66.5237,"status":"passed"},"step":{"line":36,"prefix":"When","index":2,"text":"method GET"},"stepLog":"14:10:35.856 request:\n1 > GET https:\/\/reqres.in\/api\/unknown\/2\n1 > Host: reqres.in\n1 > Connection: Keep-Alive\n1 > User-Agent: Apache-HttpClient\/4.5.14 (Java\/17.0.11)\n1 > Accept-Encoding: gzip,deflate\n\n\n14:10:35.919 response time in milliseconds: 62\n1 < 200\n1 < Date: Thu, 11 Jul 2024 08:40:35 GMT\n1 < Content-Type: application\/json; charset=utf-8\n1 < Transfer-Encoding: chunked\n1 < Connection: keep-alive\n1 < Report-To: {\"group\":\"heroku-nel\",\"max_age\":3600,\"endpoints\":[{\"url\":\"https:\/\/nel.heroku.com\/reports?ts=1720167131&sid=c4c9725f-1ab0-44d8-820f-430df2718e11&s=MG%2FjCL3XedNsaShnQbwxuGqGKw4Mq8CVrMX4Zg4cbUI%3D\"}]}\n1 < Reporting-Endpoints: heroku-nel=https:\/\/nel.heroku.com\/reports?ts=1720167131&sid=c4c9725f-1ab0-44d8-820f-430df2718e11&s=MG%2FjCL3XedNsaShnQbwxuGqGKw4Mq8CVrMX4Zg4cbUI%3D\n1 < Nel: {\"report_to\":\"heroku-nel\",\"max_age\":3600,\"success_fraction\":0.005,\"failure_fraction\":0.05,\"response_headers\":[\"Via\"]}\n1 < X-Powered-By: Express\n1 < Access-Control-Allow-Origin: *\n1 < Etag: W\/\"e8-ov4wWh4\/OY1IMQMqWgskYtOFnVs\"\n1 < Via: 1.1 vegur\n1 < Cache-Control: max-age=14400\n1 < CF-Cache-Status: HIT\n1 < Age: 3185\n1 < Vary: Accept-Encoding\n1 < Server: cloudflare\n1 < CF-RAY: 8a177d588d48f3f5-BOM\n{\"data\":{\"id\":2,\"name\":\"fuchsia rose\",\"year\":2001,\"color\":\"#C74375\",\"pantone_value\":\"17-2031\"},\"support\":{\"url\":\"https:\/\/reqres.in\/#support-heading\",\"text\":\"To keep ReqRes free, contributions towards server costs are appreciated!\"}}\n\n"},{"result":{"nanos":13200,"startTime":1720687235921,"endTime":1720687235921,"millis":0.0132,"status":"passed"},"step":{"line":37,"prefix":"Then","index":3,"text":"status 200"}}],"line":33,"description":"","durationMillis":67.3611,"failed":false,"tags":["execute"],"executorName":"main","name":"Get single resourse not found","startTime":1720687235851,"refId":"[5:33]","endTime":1720687235921,"exampleIndex":-1},{"sectionIndex":5,"stepResults":[{"result":{"nanos":193500,"startTime":1720687235932,"endTime":1720687235932,"millis":0.1935,"status":"passed"},"step":{"line":41,"prefix":"Given","index":0,"text":"url baseURL"},"stepLog":"14:10:35.931 karate.env system property was: null \n"},{"result":{"nanos":643000,"startTime":1720687235932,"endTime":1720687235933,"millis":0.643,"status":"passed"},"step":{"line":42,"prefix":"And","index":1,"text":"path 'unknown\/23'"}},{"result":{"nanos":639664500,"startTime":1720687235933,"endTime":1720687236573,"millis":639.6645,"status":"passed"},"step":{"line":43,"prefix":"When","index":2,"text":"method GET"},"stepLog":"14:10:35.934 request:\n1 > GET https:\/\/reqres.in\/api\/unknown\/23\n1 > Host: reqres.in\n1 > Connection: Keep-Alive\n1 > User-Agent: Apache-HttpClient\/4.5.14 (Java\/17.0.11)\n1 > Accept-Encoding: gzip,deflate\n\n\n14:10:36.572 response time in milliseconds: 635\n1 < 404\n1 < Date: Thu, 11 Jul 2024 08:40:36 GMT\n1 < Content-Type: application\/json; charset=utf-8\n1 < Content-Length: 2\n1 < Connection: keep-alive\n1 < Report-To: {\"group\":\"heroku-nel\",\"max_age\":3600,\"endpoints\":[{\"url\":\"https:\/\/nel.heroku.com\/reports?ts=1720687236&sid=c4c9725f-1ab0-44d8-820f-430df2718e11&s=Zpohk0HeGjeTgZJq5sXkZS31nS3yjq8PqzZkxFbTgwk%3D\"}]}\n1 < Reporting-Endpoints: heroku-nel=https:\/\/nel.heroku.com\/reports?ts=1720687236&sid=c4c9725f-1ab0-44d8-820f-430df2718e11&s=Zpohk0HeGjeTgZJq5sXkZS31nS3yjq8PqzZkxFbTgwk%3D\n1 < Nel: {\"report_to\":\"heroku-nel\",\"max_age\":3600,\"success_fraction\":0.005,\"failure_fraction\":0.05,\"response_headers\":[\"Via\"]}\n1 < X-Powered-By: Express\n1 < Access-Control-Allow-Origin: *\n1 < Etag: W\/\"2-vyGp6PvFo4RvsFtPoIWeCReyIC8\"\n1 < Via: 1.1 vegur\n1 < Cache-Control: max-age=14400\n1 < CF-Cache-Status: EXPIRED\n1 < Vary: Accept-Encoding\n1 < Server: cloudflare\n1 < CF-RAY: 8a177d590e7980bb-BOM\n{}\n\n"},{"result":{"nanos":11900,"startTime":1720687236573,"endTime":1720687236573,"millis":0.0119,"status":"passed"},"step":{"line":44,"prefix":"Then","index":3,"text":"status 404"}}],"line":40,"description":"","durationMillis":640.5129,"failed":false,"tags":["execute"],"executorName":"main","name":"Get single resuorse","startTime":1720687235930,"refId":"[6:40]","endTime":1720687236573,"exampleIndex":-1},{"sectionIndex":6,"stepResults":[{"result":{"nanos":195700,"startTime":1720687236583,"endTime":1720687236583,"millis":0.1957,"status":"passed"},"step":{"line":49,"prefix":"Given","index":0,"text":"url baseURL"},"stepLog":"14:10:36.582 karate.env system property was: null \n"},{"result":{"nanos":407100,"startTime":1720687236583,"endTime":1720687236583,"millis":0.4071,"status":"passed"},"step":{"line":50,"prefix":"And","index":1,"text":"path 'users'"}},{"result":{"nanos":821300,"startTime":1720687236584,"endTime":1720687236585,"millis":0.8213,"status":"passed"},"step":{"line":51,"prefix":"And","index":2,"text":"param delay = 3"}},{"result":{"nanos":3703658800,"startTime":1720687236585,"endTime":1720687240289,"millis":3703.6588,"status":"passed"},"step":{"line":52,"prefix":"When","index":3,"text":"method GET"},"stepLog":"14:10:36.586 request:\n1 > GET https:\/\/reqres.in\/api\/users?delay=3\n1 > Host: reqres.in\n1 > Connection: Keep-Alive\n1 > User-Agent: Apache-HttpClient\/4.5.14 (Java\/17.0.11)\n1 > Accept-Encoding: gzip,deflate\n\n\n14:10:40.286 response time in milliseconds: 3698\n1 < 200\n1 < Date: Thu, 11 Jul 2024 08:40:40 GMT\n1 < Content-Type: application\/json; charset=utf-8\n1 < Transfer-Encoding: chunked\n1 < Connection: keep-alive\n1 < Report-To: {\"group\":\"heroku-nel\",\"max_age\":3600,\"endpoints\":[{\"url\":\"https:\/\/nel.heroku.com\/reports?ts=1720687237&sid=c4c9725f-1ab0-44d8-820f-430df2718e11&s=eBLlB7CjoLTKFosv9IQyCY7auEkZCiQuloM2D36xS1c%3D\"}]}\n1 < Reporting-Endpoints: heroku-nel=https:\/\/nel.heroku.com\/reports?ts=1720687237&sid=c4c9725f-1ab0-44d8-820f-430df2718e11&s=eBLlB7CjoLTKFosv9IQyCY7auEkZCiQuloM2D36xS1c%3D\n1 < Nel: {\"report_to\":\"heroku-nel\",\"max_age\":3600,\"success_fraction\":0.005,\"failure_fraction\":0.05,\"response_headers\":[\"Via\"]}\n1 < X-Powered-By: Express\n1 < Access-Control-Allow-Origin: *\n1 < Etag: W\/\"3e4-2RLXvr5wTg9YQ6aH95CkYoFNuO8\"\n1 < Via: 1.1 vegur\n1 < CF-Cache-Status: DYNAMIC\n1 < Server: cloudflare\n1 < CF-RAY: 8a177d5d0d984483-BOM\n{\"page\":1,\"per_page\":6,\"total\":12,\"total_pages\":2,\"data\":[{\"id\":1,\"email\":\"george.bluth@reqres.in\",\"first_name\":\"George\",\"last_name\":\"Bluth\",\"avatar\":\"https:\/\/reqres.in\/img\/faces\/1-image.jpg\"},{\"id\":2,\"email\":\"janet.weaver@reqres.in\",\"first_name\":\"Janet\",\"last_name\":\"Weaver\",\"avatar\":\"https:\/\/reqres.in\/img\/faces\/2-image.jpg\"},{\"id\":3,\"email\":\"emma.wong@reqres.in\",\"first_name\":\"Emma\",\"last_name\":\"Wong\",\"avatar\":\"https:\/\/reqres.in\/img\/faces\/3-image.jpg\"},{\"id\":4,\"email\":\"eve.holt@reqres.in\",\"first_name\":\"Eve\",\"last_name\":\"Holt\",\"avatar\":\"https:\/\/reqres.in\/img\/faces\/4-image.jpg\"},{\"id\":5,\"email\":\"charles.morris@reqres.in\",\"first_name\":\"Charles\",\"last_name\":\"Morris\",\"avatar\":\"https:\/\/reqres.in\/img\/faces\/5-image.jpg\"},{\"id\":6,\"email\":\"tracey.ramos@reqres.in\",\"first_name\":\"Tracey\",\"last_name\":\"Ramos\",\"avatar\":\"https:\/\/reqres.in\/img\/faces\/6-image.jpg\"}],\"support\":{\"url\":\"https:\/\/reqres.in\/#support-heading\",\"text\":\"To keep ReqRes free, contributions towards server costs are appreciated!\"}}\n\n"},{"result":{"nanos":13400,"startTime":1720687240288,"endTime":1720687240288,"millis":0.0134,"status":"passed"},"step":{"line":53,"prefix":"Then","index":4,"text":"status 200"}}],"line":48,"description":"","durationMillis":3705.0963,"failed":false,"tags":["execute"],"executorName":"main","name":"Get delay response","startTime":1720687236581,"refId":"[7:48]","endTime":1720687240288,"exampleIndex":-1}],"callDepth":0,"name":"Request Responce-Get feature","description":"","resultDate":"2024-07-11 02:10:40 PM","durationMillis":5914.3488,"passedCount":7}